ID,"Store Name",Image,Address,Description,Schedule,Longitude,Latitude,"Url Key"
100,Annora,soborna.png,Nedrud,Douglass,Schonfeld,252.42,730.34,annora-store-100
101,Marita,sob_info1.png,Riordan,Gaspard,Zetta,70.91,556.75,marita-store-101
102,Amelia,photo.jpeg,Henebry,Tippets,Lemuela,289.02,18.51,amelia-store-102
103,Carol-Jean,dog.jpeg,Mendez,Hylan,Bluh,218.99,891.97,carol-jean-store-103
104,Christal,sob_info2.png,Hieronymus,Suzetta,Read,225.44,842.31,christal-store-104
105,Anallese,Corene,Taima,Bach,Gilbertson,353.86,515.32,Ricki
106,Aubrie,Cathyleen,Niccolo,Blisse,Gaulin,283,639.46,Garbe
107,Claresta,Cam,Emanuel,Sheng,Cottle,480.91,8.79,Anyah
108,Darlleen,Shirlee,Monaco,Buffum,Bronk,33.67,612.22,Catie
109,Mallory,Concettina,Alva,Linskey,Cosenza,213.23,434.08,Latini
110,Drucie,Stephanie,Jenness,Sasnett,Myrilla,422.3,809.92,Lorain
111,Di,Deirdre,Marisa,Uund,Warthman,355.08,537.2,Zeeba
112,Deirdre,Magdalena,Tybald,Jerold,Barbey,50.23,760.67,Erskine
113,Kathy,Cathyleen,Nester,Gerge,Reneta,10.16,939.46,Elsinore
114,Verla,Miquela,Jobi,Baylor,Rebecka,141.02,315.38,Mike
115,Jacquetta,Alia,Ventre,Paton,Gibbeon,268.42,997.84,Dominy
116,Amara,Lindie,Kathie,Cath,Kalinda,449.42,898.51,Persse
117,Vinita,Jacquetta,Koziara,Bettine,Dimitris,265.79,207.74,Corilla
118,Blondelle,Kylynn,Jacobah,Sophronia,Obed,310.95,812.34,Ophelia
119,Felice,Sindee,Wilona,Olympium,Shaddock,140.5,554.69,Ashok
120,Basia,Sissy,Riva,Koehler,Kosey,184.36,740.89,Bigner
121,Lenna,Gisela,Sheedy,Taima,Pearse,360.68,295.48,Faso
122,Cindelyn,Ellette,Faso,Isidore,Ietta,493.33,212.62,Rogerio
123,Linet,Nananne,Edee,Lindemann,Genna,306.58,548.14,Gualtiero
124,Yetty,Orelia,Odysseus,Chinua,Edison,320.97,837.97,Gualtiero
125,Minne,Teriann,Wenda,Zachary,Gamaliel,41.95,856.11,Terrence
126,Catrina,Nelle,Gordon,Atonsah,Susannah,444.24,540.82,Verger
127,Zondra,Netty,Tarrant,Ax,Secrest,378.89,663.26,Charity
128,Hollie,Dione,Koehler,Shanley,Sidonius,223.24,680.2,Carlson
129,Raquela,Vita,Calhoun,Gherardo,Liva,475.38,263.08,Thornburg
130,Nollie,Jeanna,Riordan,LaRue,LaRue,145,731.4,Noam
131,Kristina,Katleen,Curren,Erich,Noam,256.35,133.26,Phi
132,Britte,Betta,Zrike,Douglass,Lorain,472.97,738.51,Alabaster
133,Jacenta,Almeta,Meli,Yate,Macey,48.56,991.12,Byrne
134,Reeba,Jeanna,Sallyann,Jehu,Penelopa,296.96,586.83,Gamaliel
135,Yolane,Doro,Harned,Fennessy,Zina,126.32,293.27,Maryanne
136,Melina,Calla,Wilona,Willie,Hoenack,479.1,405.67,Wu
137,Ronna,Tami,Desai,Douglass,Lattie,281.67,770.34,Cressida
138,Ingrid,Carolina,Magnolia,Masao,Durware,372.24,641.17,Campball
139,Marylou,Celene,Elvyn,Franza,Anis,379.34,305.67,Torray
140,Amara,Andree,Wesle,Helfand,Alice,255.08,106.52,Brandice
141,Molli,Teddie,Wandie,Poppy,Sisile,226.49,680.1,Ralfston
142,Riannon,Rosene,Therine,Rosette,Paine,468.83,712.76,Curren
143,Valeda,Viviene,Pyle,Rosette,Brieta,269.31,133.21,Halla
144,Moyna,Rebeca,Kiyoshi,Blase,Rozanna,348.06,603.41,Mich
145,"Zsa Zsa",Gwenneth,Talia,Holtz,Radu,493.17,277.21,Israeli
146,Benita,Flo,Norvol,Horan,Pauly,167.79,56.76,Cyrie
147,Nannie,Codie,Sinegold,Yoko,Lilas,117.17,121.04,Kesley
148,Frank,Carlie,Abram,Sadowski,Schlosser,315.27,825.72,Lynn
149,Paulita,Clary,Pattin,Bouchard,Jess,34.82,13,Hoban
150,Cristabel,Nyssa,Jarib,Rebecka,Ortrude,144.11,234.64,Othilia
151,Marguerite,Ida,Clie,Garbe,Corabella,366.15,232.97,Liva
152,Tracey,Hallie,Lindemann,Berard,Gamaliel,42.36,960.33,Hoban
153,Belinda,Brianna,Hylan,Neva,Ramona,44.58,924.56,Alarise
154,Orelia,Madalyn,Japeth,Kare,Dorine,83.3,574,Amethist
155,Hettie,Claudina,Manolo,Ioab,Solitta,304.04,156.86,Land
156,Gaylene,Alie,Merat,Sasnett,Yate,108.7,22.29,Willie
157,Doralynne,Jorry,Lipson,Alisia,Demitria,450.55,688.14,Marden
158,Jerry,Michaelina,Cherianne,Chesna,Dermott,53.94,522.34,Rad
159,Mignon,Di,Douglass,Secrest,Kevon,3.87,238.62,Rodmann
160,Fayre,Thalia,Bari,Kamaria,Ulphia,25.86,21.96,Leler
161,Jemie,Jolyn,Clywd,Oriana,Fax,199.32,216.48,Muriel
162,Ira,Carilyn,Olnee,Martguerita,Joeann,388.91,157.09,Swanhildas
163,Pollyanna,Rozele,Ortrude,Doig,Kiersten,220.67,492.74,Tiffa
164,Sissy,Ariela,Cecile,Anyah,Sprage,442.34,573.79,Solitta
165,Cassondra,Rubie,Orpah,Honoria,Alfons,439.56,303,Lubin
166,Bibby,Allyce,Johanna,Merell,Yerkovich,334.1,519.43,Chem
167,Mahalia,Di,Edvard,Paine,Cohdwell,430.64,578.03,Prober
168,Claresta,Linet,Iiette,Pandolfi,Curren,216.12,586.33,Joachim
169,Tamqrah,Malina,Durware,Lane,Kaete,484.91,879.21,Manolo
170,Tatiania,Shaylyn,Kare,Laurianne,Zola,247.23,327.42,Docilla
171,Nadine,Constance,Suk,Concha,Naor,262.5,369.89,Modie
172,Dulce,Barbi,Himelman,Cassius,Eben,405.77,637.43,Ambrosia
173,Hayley,Rori,Bluh,Oneida,Hartnett,182.86,555.23,Leifeste
174,Glynnis,Jinny,Zitvaa,Fry,Sadowski,399.9,845.81,Susannah
175,Kenna,Cindelyn,Korey,Bobbee,Berard,253.83,196.12,Zola
176,Bee,Grier,Slifka,Anestassia,Harned,236.63,202.69,Stuart
177,Albertina,Sybille,Garlinda,Iiette,Faust,223.62,509.06,Ciro
178,Norine,Vinita,Felizio,Fillbert,Kermit,173.79,545.45,Dichy
179,Mallory,Chandra,Westphal,Tayib,Saree,482.52,483.21,Damarra
180,Florencia,Rochette,Carey,Girardo,Posner,31.61,272.53,Delila
181,Jillayne,Codie,Shaver,Macey,Bendick,42.64,561.19,Hutchison
182,Leeanne,Michaelina,Ambrosia,Israeli,Mintz,413.69,619.89,Hirsch
183,Blondelle,Lacie,Ellord,Toffic,Buffum,256.44,800.49,Jeanne
184,Arlina,Cyb,Trace,Xerxes,Brenn,442.85,109.93,Graig
185,Meghann,Perry,Judye,Harl,Olin,49.46,588.92,Johanna
186,Cassondra,Agnese,Peti,Isidore,Iaverne,6.56,646.16,Jaylene
187,Karina,Cristabel,Genna,Flyn,Old,369.91,544.41,Suk
188,Orsola,Jacenta,Lissi,Selway,Bluh,64.77,231.16,Anis
189,Jemie,Nadine,Saint,Willie,Ciapas,246.52,564.93,Velick
190,Amalie,Emelina,Arley,Henrie,Anastatius,272.16,649.03,Ezar
191,Brianna,Concettina,Elisha,Wenoa,Hanleigh,488.88,578.66,Christine
192,Alameda,Doro,Alarise,Vary,Killigrew,334.03,238.89,Rosemary
193,Henriette,Nelle,Lindemann,Skell,Hourigan,313.89,595.54,Joachim
194,Marylou,Carolina,Allina,Aprile,Robertson,362.36,148.75,Lutero
195,Susan,Blondelle,Roscoe,Hurley,Randene,130.4,107.92,Earlie
196,Jolyn,Katleen,Dulciana,Weinreb,Carvey,57.58,20.69,Hirsch
197,Kassey,Orelia,Astra,Klemperer,Ventre,230.08,334.83,Cookie
198,Jenda,Jenda,Hylan,Mitzi,Rheingold,265.81,459.95,Euridice
199,Kelly,Mary,Michella,Gemini,Donoghue,429.02,996.35,Reidar
200,Chrystel,Aili,Lasley,Waite,Hailee,90,554.84,Middleton
201,Nataline,Brandise,Hachmin,Gamaliel,Sadowski,57.48,160.41,Velick
202,Renie,Lisette,Swanhildas,Alva,Garrison,97.98,962.7,Cloris
203,Jorry,Celestyna,Ardeha,Heisel,Craggie,83.84,778.95,Kauppi
204,Feliza,Lucy,Shirberg,Joni,Leopold,211.12,910.54,Stefa
205,Eugine,Gaylene,Infield,Hortensia,Manolo,91.12,926.75,Merriott
206,Laurene,Harrietta,Vittoria,Dalli,Jarib,430.14,483.16,Pettiford
207,Ellette,Halette,Jary,Bates,Magnolia,480.11,516.34,Borrell
208,Carly,Janis,Mott,Hepsibah,Bigner,484.38,507.86,Swigart
209,Melanie,Alejandra,Hermes,Hessler,Anderea,458.44,9.76,Payson
210,Gui,Shell,Docilla,Solitta,Freddi,216.21,156.5,Pandolfi
211,Netty,Millie,Alabaster,Ball,Hanleigh,418.13,638.22,Felizio
212,Iseabal,Barbi,Raul,Arley,Ogren,178.13,431.8,Ellord
213,Shandie,Adore,Goddard,Baudin,Middleton,346.22,991.14,Fulmer
214,Verla,Shaine,Hamil,Tristram,Maribeth,444.99,827.41,Juliet
215,Dianemarie,Ann-Marie,Swanhildas,Simmonds,Thunell,76.16,850.95,Wattenberg
216,Basia,Goldie,Wenda,Niccolo,Fredi,248.72,698.08,Stav
217,Rivalee,Marguerite,Johnsson,Hartnett,Hartnett,476.04,295.08,Lesley
218,Gilligan,Arlena,Ax,Dosia,Scammon,221.12,761.81,Tyson
219,Netty,Jobi,Mullane,Clara,Dorine,14.88,681.86,Lasley
220,Shandie,Ezmeralda,Gower,Medrek,Merat,155.87,382.59,Blase
221,Carly,Frank,Suk,Zrike,Chinua,461.72,394.46,Ferino
222,Marylou,Marinna,Cutlerr,Durware,Lane,56.79,597.31,Anyah
223,Sandie,Carly,Melleta,Charity,Baptlsta,16.82,521,Kellby
224,Dulcinea,Amara,Torray,Joli,Rillings,267.58,652.21,Tillford
225,Nicoli,Catrina,Tacye,MacIntosh,Cath,327.52,726.41,Madelene
226,Mahalia,Pierette,Woodberry,Mich,Georas,321.53,270.36,Yerkovich
227,Mignon,Mureil,Dimitris,Kress,Yoko,374.83,710.14,Sprage
228,Dulcinea,Ketti,LaRue,Lemuela,Carmena,401.7,769.46,Quent
229,Marnia,Harmonia,Thilda,Jerold,Palocz,35.67,38.2,Celestine
230,Queenie,Silvana,Hathaway,Alarise,Berard,73.38,979.28,Barrus
231,Michaelina,Wileen,Fennessy,Felizio,Emerson,282.53,448.45,Ezar
232,Trudie,Larine,Hamil,Vacuva,Sisile,399.76,724.09,Yorick
233,Priscilla,Rochette,Girardo,O'Carroll,Rebecka,56.47,709.62,Fillbert
234,Jasmina,Atlanta,Carmena,Bach,Quinn,2.39,851.41,Gwenore
235,Thalia,Lulita,Dorothy,Sothena,Gower,49.6,967.94,Gusella
236,Roxane,Mariele,Flyn,Linehan,Gaulin,326.33,578.2,Hourigan
237,Tabbatha,Harrietta,Ivens,Germann,Thunell,497.4,13.31,Felizio
238,Shaylyn,Nerta,Mike,Pitt,Fillbert,493.41,453.59,Gavrila
239,Pearline,Aurelie,Ursulette,Hoenack,Llovera,392.59,761.92,Fax
240,Liana,Nataline,Vacuva,Sheng,Telfer,425.96,950.88,Saree
241,Nariko,Max,Bethany,Velick,Dannye,385.37,303.24,Redmond
242,Kate,Giustina,Keily,Old,Ulphia,216.29,966.26,Joeann
243,Gilligan,Susan,Vorster,Marsden,McNully,151.25,968.21,Howlyn
244,Oona,Shell,Dahlia,Ventre,Sundin,307.27,411.94,Pacorro
245,Letizia,Cecile,Kunin,Kathie,Uund,428.35,115.14,Jarib
246,Ericka,Clo,Myrilla,Niccolo,Madelene,143.26,909.69,Lattie
247,Lynea,Jean,Xerxes,Odell,Merna,435.86,743.96,Amethist
248,Nadine,Nickie,Saint,Chrystel,Center,160.01,894.2,Carbo
249,Orsola,Melodie,Bebe,Louanna,Marijo,145,664.06,Calhoun
250,Janey,Christal,Koziara,Isacco,Gillan,144.87,741.86,Sisile
251,Zia,Xylina,Bertold,Sharl,Brian,469.56,248.85,Jacinda
252,Jeanna,Joleen,Ricki,Garbe,Cimbura,177.59,908.58,Dex
253,Lita,Lenna,Rurik,Zenas,Letsou,252.17,707.68,Barney
254,Carolina,Evita,Vacuva,Gibbeon,Montgomery,432.21,370.44,Edee
255,Kial,Lorie,Maroney,Trace,Egbert,444.91,215.34,Allina
256,Tracey,Renae,Sikorski,Abbot,Phaidra,287.01,148.73,Ruvolo
257,Madalyn,Cindelyn,Wilona,Morgun,Sasnett,25.94,953.77,Goerke
258,Oralee,Chastity,Toffic,Jorgan,Liva,162.83,481.94,Edmund
259,Gui,Doro,Decato,Wadell,Lail,447.91,281.66,Beniamino
260,Brooks,Jenda,Othilia,Milson,Natica,234.91,634.33,Orlene
261,Oralee,Willetta,Dudley,Kevon,Elisha,170.8,320.2,Gale
262,Orsola,Dulce,Sheng,Berne,Valoniah,430.81,549.78,Kaja
263,Emylee,Merry,Zenas,Lareena,Carbo,435.26,591.96,Wallis
264,Hope,Belinda,Masao,Gregrory,Atcliffe,129.79,55.27,Bendick
265,Ebonee,Oona,Fink,Ardra,Angelis,373.44,886.82,Heidt
266,Consuela,Korrie,Hermes,Ietta,Carbo,456.78,732.72,Zeeba
267,Joane,Suzette,Papageno,Candy,Vary,296.57,579.42,Dudley
268,Lorenza,Carmela,Weide,Lowry,Croix,53.93,66.98,Radu
269,Stevana,Mahalia,Socha,Ivens,Robertson,337.95,178.38,Terrence
270,Paule,Christy,Ephrem,Cadmar,Dielu,50.85,964.95,Shaver
271,Roz,Anica,Publia,Macey,Arathorn,417.13,148.31,Fontana
272,Queenie,Jan,Hortensia,Whittaker,Brady,427.01,150.58,Donoghue
273,Kelly,Raina,Bergman,Odysseus,Burkle,62.4,570.98,Karylin
274,Karly,Bertine,Tristram,O'Neill,Sancho,88.96,215.83,Grayce
275,Alyssa,Ardys,Tjon,Camden,Payson,143.96,664.33,Burch
276,Gloria,Dode,Nerita,Decato,Shanley,298.31,998.45,Cordi
277,Constance,Rubie,Joeann,Philipp,Maurine,440.54,486.24,Kiersten
278,Katuscha,Dulcinea,Bluh,Jalbert,Nickola,108.87,284.81,Fairweather
279,Agathe,Catrina,Zina,Susannah,Elvyn,469.13,568.34,Elo
280,Adele,Bertine,Darian,Bendick,Dudley,308.67,208.73,Thar
281,Eve,Sharai,Pyle,Uund,Brieta,485.8,578.4,Hilbert
282,Vonny,Agathe,Sawtelle,Vilma,Diann,243.33,686.54,Egbert
283,Marcelline,Jerry,Ludewig,Fiann,Goth,309.73,932.45,Federica
284,Marti,Blake,Joachim,Adlare,Sallyann,148.7,969.25,Jobi
285,Britte,Larine,Clara,Byrne,Pearse,73.76,46.76,Hebner
286,Zaria,Dode,Jacinda,Pelagias,Clara,184.62,335.21,Ax
287,Annecorinne,Shannah,Hermes,Zitvaa,Maisey,101.73,414.74,Maribeth
288,Jsandye,Kirbee,Tarrant,Toni,Ahab,124.29,598.67,Ciro
289,Barbara,Moyna,Evvie,Kevon,Felecia,429.41,605.64,Yate
290,Raquela,Karlee,Lutero,Wooster,Prober,84.81,599.16,Masao
291,Keelia,Edee,Ochs,Albertine,Cloris,180.26,104,Chabot
292,Marcelline,Marinna,Havens,Alcott,Charmine,16.76,772.82,Ashely
293,Jany,Carolina,Oscar,Tannie,Hartnett,75.55,138.42,Pascia
294,Britte,Hannis,Briney,Hunfredo,Justinn,252.03,845.12,Fry
295,Kristan,Linet,Zamora,Chabot,Rocray,97.52,715.9,Therine
296,Tracey,Kaja,Philipp,Urias,Jalbert,180.2,191.61,Ingra
297,Binny,Ardenia,Odell,Yate,Syd,483.83,678.45,Sikorski
298,Lizzie,Linet,Crudden,Trinetta,Rosemary,161,249.39,Raimondo
299,Calla,Sarette,Nadia,Regan,Magdalen,156.02,567.17,Tengdin
300,Reeba,Annora,Pauly,Bennie,Sophronia,297.26,248.22,Oster
301,Kathi,Esmeralda,Annabella,Amadas,Si,322.77,158.93,Pelagias
302,Rosene,Jsandye,Chandler,Secrest,Wildermuth,454.47,512.28,Zuzana
303,Cissiee,Randa,Hurley,Brotherson,Ailyn,4.49,946.64,Harriman
304,Jenilee,Aurore,Turne,Neva,Emanuel,281.52,431.17,Deny
305,Jessy,Vanessa,Prouty,Mata,Loring,84.22,888.48,Gregrory
306,Teddie,Cyb,Fennessy,Afton,Rodmann,59,22.48,Bluh
307,Andree,Christal,Thomasina,Armanda,Claudine,53.99,874.09,Wallis
308,Fernande,Gavrielle,Evangelia,Bonilla,Melony,314.3,710.71,Jillane
309,Max,Nita,Agle,Creamer,Jerald,272.08,57.06,Kristi
310,Lizzie,Penelopa,Bevin,Darian,Zina,286.01,439.08,Pozzy
311,Roxane,Beatriz,Sherrie,Hessler,Colbert,479.89,129.65,Lowry
312,Chastity,Esmeralda,Briney,Stephie,Sallyann,3.01,659.6,Sacken
313,Britni,Helsa,Ingra,Radu,Dahlia,60.09,296.11,Melan
314,Stacey,Leeanne,Olympium,Hirsch,Ummersen,265.82,583.56,Jacqui
315,Dulcinea,Mallory,Winnick,Lynn,Kirbee,300.46,7.47,Libna
316,Vita,Nessie,Dorine,Rese,Aloise,394.16,521.04,Berne
317,Millie,Larine,Delila,Baylor,Riva,318.01,542.24,Harday
318,Deirdre,Valeda,Johnsson,Holbrook,Lareena,184.06,771.97,Zenas
319,Daphne,Halette,Gahl,Cecile,Silvan,454.75,668.6,Susannah
320,Rozele,Justinn,Kazimir,Curren,Levey,31.03,213.05,Ciro
321,Brynna,Dennie,Adalbert,Mauer,Markman,377.19,987.88,Stuart
322,Agathe,Cristabel,Poll,Malanie,Emanuel,296.09,780.9,Shuler
323,Rivalee,Katuscha,Wareing,Vins,Colleen,367.28,325.14,Francyne
324,Jere,Tami,Stanwood,Orpah,Tamsky,89.92,217.4,Pyle
325,Karena,Hyacinthe,Moina,Aprile,Chick,375.12,588.99,Vins
326,Maurene,Aurore,Vins,Lindemann,Madaih,252.19,1000.73,Toni
327,Rori,Christian,Liebermann,Braun,Mallon,334.73,520.57,Cressida
328,Jaclyn,Flo,Lea,Brady,Peonir,361.03,261.93,Whittaker
329,Willetta,Gwyneth,Vittoria,Nester,Gombach,346.2,95.69,Scammon
330,Alisha,Ana,Old,Ummersen,Koehler,348.48,784.41,Haldas
331,Brianna,Cyb,Means,Old,Sibyls,414.93,674.9,Hanleigh
332,Noelle,Charlena,Sabella,Yusuk,Vacuva,349.03,578.5,Clarissa
333,Raina,Cindelyn,Morgun,Chabot,Voletta,268.67,793.16,Abbot
334,Cristabel,Sarette,Ball,Sawtelle,Wandie,290.84,888.13,Chapland
335,Max,Mureil,Mitzi,Buckler,Kylander,345.83,105.03,Ilka
336,Emilia,Estell,Rodmann,Terencio,Kellby,150.37,213.21,Kronfeld
337,Sam,Maisey,Land,Weaks,Land,467.82,591.7,Liebermann
338,Gwenneth,Tersina,Hillel,Dreda,Anestassia,475.35,434.1,Markman
339,Lusa,Ricky,Nahum,Tyson,Syd,80.13,589.1,Hepsibah
340,Taffy,Mildrid,Annabella,Buffum,Sprage,205.89,67.24,Wattenberg
341,Edee,Britni,Serilda,Thar,Ardeha,13.54,412.93,Lunsford
342,Doralynne,Anestassia,Shields,Cookie,Natalia,265.91,679.04,Rosette
343,Cordi,Courtnay,Edison,Constancy,Lowry,488.05,944.45,Aloise
344,Jillayne,Janeczka,Eldrid,Skurnik,Sperling,320.15,571.79,Willie
345,Renie,Hannis,Bivins,Leler,Taam,497.07,648.04,Quinn
346,Ulrike,Elsie,Pyle,Cecile,Chem,83.15,63.73,Yusuk
347,Lorie,Lyssa,Abernon,Parette,Alfons,131.17,352.3,Elisha
348,Thalia,Yolane,Franza,Phi,Pandolfi,442.71,463.94,Prober
349,Lanae,Blinni,Shaver,Cherianne,Lymann,395.01,915.21,Audly
350,Jeanna,Heida,Hailee,Stacy,Sasnett,139.13,918.04,Jerald
351,Millie,Keelia,Peg,Phaidra,Noelyn,57.55,473.02,Marijo
352,Mahalia,Mary,Bethany,Zenas,Winthorpe,274.03,818.01,Pascia
353,Blondelle,Grier,Krystle,Catie,Eiser,306.88,970.82,Bertold
354,Rosabelle,Georgetta,Lalitta,LaRue,Ludewig,136.14,372.77,Sheng
355,Adore,Lorie,Gaynor,Johnsson,Jagir,359.05,865.86,Garek
356,Ottilie,Gloria,Goerke,Sasnett,Jorgan,408.89,675.15,Ax
357,Charissa,Flo,Voletta,Fax,Primalia,265.94,355.37,Ellord
358,Joelly,Alejandra,Myrilla,Merna,Mata,484.91,926.95,Genna
359,Chastity,Bernie,Phi,Waldron,Lorain,101.77,600.51,Amasa
360,Ofilia,Barbara,Eldrid,Candy,Lissi,200.22,100.26,Travax
361,Nessie,Madelle,Annice,Ardra,Prouty,362.53,355.76,Margarete
362,Lynde,Willetta,Presber,Camden,Decato,293.62,299.17,Aprile
363,Dulcinea,Briney,Shaddock,Hoenack,Stacy,342.37,874.73,Moina
364,Kary,Andree,Tengdin,Bluh,Voletta,114.5,14.19,Bennie
365,Lonnie,Beth,Shields,Imelida,Gerge,391.78,924.87,Audly
366,Tomasina,Oona,Ranjiv,Shuler,Pascia,292.84,667.91,Markman
367,Fawne,Dotty,Angelis,Ade,Liva,226.89,631.65,Valoniah
368,Collen,Frank,Marlie,Eiser,Truc,207.73,383.03,Koehler
369,Ericka,Letizia,Brunell,Armanda,Pattin,131.15,525.97,Henrie
370,Gretal,Adore,Kinnard,Yorick,Nahum,121.1,472.07,Denis
371,Gaylene,Raf,Brian,Sherfield,Regan,355.05,994.44,Vastah
372,Malina,Rosaline,Hermes,Sothena,Lymann,21.63,949.95,Elo
373,Kylynn,Lynnea,Sherrie,Deny,Ezar,255.02,182.34,Rozanna
374,Queenie,Althea,Peti,Durware,Lesley,25.88,834.25,Riordan
375,Mariele,Margarette,McLaughlin,Tice,Bari,256.31,941.73,Marlie
376,Mady,Dolli,Secrest,Bronk,Brieta,294.59,916.29,Kimmie
377,Elvira,Michaelina,Dahlia,Faro,Greyson,28.45,791.93,Saint
378,Penelopa,Halette,Kimmie,Terrence,Giff,220.12,133.53,Graig
379,Gabriellia,Molli,Carolin,Nance,Harl,373.69,612.65,Barrus
380,Nicoli,Hettie,Emmy,Tjon,Ferrell,466.52,179.84,Ortrude
381,Caritta,Eve,Ludewig,Lareena,Lareena,309.42,394.19,Cath
382,Aigneis,Bibby,Dahlia,Belldas,Christal,83.04,673.08,Zamora
383,Quintina,Natka,Nerita,Ietta,Aurelio,409.73,961.13,Ellerey
384,Wendi,Shell,Brieta,Olin,Candy,223.77,167.56,Romelda
385,Rochette,Raquela,Frodi,Oscar,Alabaster,143.42,819.03,Drisko
386,Sherrie,Linzy,Laurianne,Lattie,Tiffa,422.82,473.85,Tarrant
387,Steffane,Paule,Stilwell,Regan,Gahl,321.04,262.99,Trey
388,Sarette,Frances,Lail,Grayce,Regan,335.01,344.94,Maurine
389,Melina,Eolanda,Ashely,Dorothy,Camden,6.91,275.27,Lay
390,Mariele,Gertrud,Pierette,Mozelle,Claudine,408.3,706.73,Wenda
391,Caritta,Rori,Barbey,Emanuel,Federica,249.87,298.09,Wandie
392,Evita,Silvana,Aloise,Bennie,Holbrook,235.25,120.31,Demitria
393,Elora,Jsandye,Orelee,Wattenberg,Chem,29.4,26.55,Celestine
394,Fayre,Jan,Rustice,Kellby,Japeth,240.71,453.04,Ingra
395,Allyce,Imojean,Alarise,Oriana,Ledah,455.49,717.08,Adalbert
396,Keelia,Chloris,Ulphia,Mauer,Sancho,151.09,16.08,Henebry
397,Shauna,Marcy,Daniele,Strephon,Malanie,491.03,583.53,Kunin
398,Elie,Allyce,Tamar,Jefferey,Morrill,464.69,147.35,Anastatius
399,Nyssa,Julieta,Modie,Cassius,Moseley,453.89,767.92,Friede
400,Clary,Florencia,Lindemann,Zachary,Allys,454.55,634.52,Hathaway
401,Starla,Susan,Gualtiero,Himelman,Dermott,348.77,996.68,Cohdwell
402,Adore,Roz,Hedve,Killigrew,Milson,63.18,268.56,Tice
403,Danika,Caryl,Hoban,Hutchison,Crudden,57.89,309.24,Jena
404,Melina,Selma,Hollingsworth,Ferino,Leary,68.1,14.62,Tengdin
405,Marline,Shell,Natalia,Rhu,Krystle,378.38,258.09,Bevin
406,Lorne,Elyssa,Diann,McGrody,Jagir,171.13,381.61,Gert
407,Merci,Basia,Haldas,Hartnett,Jalbert,10.61,507.3,Latini
408,Teddie,Chandra,Uird,Muriel,Croix,449.47,132.31,Screens
409,Drucie,Renie,Fontana,Rosette,Cecile,179.88,517.1,Weinreb
410,Morganica,Marinna,August,Nester,Lanita,372.22,835.44,Eiser
411,Lily,Elmira,Malvino,Kathie,Tjon,100.8,736.78,Sandye
412,Ericka,Catrina,Harriman,Florina,Schwejda,84.89,287.75,Lucienne
413,Pearline,Alyda,Kiersten,Wilona,Longfellow,436.89,435.48,Michella
414,Roslyn,Charlena,Salvidor,Clywd,Nunci,117.57,484.59,Durante
415,Georgina,Dari,Tarrant,Fadiman,Winnick,93.58,118.5,Concha
416,Emma,Luci,Ciapas,Brunell,Bobbee,19.47,511.36,Jotham
417,Gisela,Shauna,Cottle,Radu,O'Carroll,104.4,749.89,Emanuel
418,Jolyn,Theodora,Love,Reidar,Esmaria,282.22,51.93,Pyle
419,Cherrita,Dorene,Mitzi,Rad,Monaco,255.75,478.59,Faro
420,Silvana,Evaleen,Raffo,Chaing,Cosenza,222.03,390.95,Grosz
421,Suzette,Nollie,Malina,Hollingsworth,Suzetta,170.37,592.38,Nunci
422,Hettie,Ashlee,Virgin,Stanwood,Jeanne,23.91,619.83,Fancie
423,Shauna,Debee,Larochelle,Sheedy,Erich,118.47,158.25,Dosia
424,Deloria,Claresta,Anestassia,Arathorn,Pyle,200.43,392.33,Nedrud
425,Sabina,Sidoney,Chaing,Howlyn,Craggie,487.04,228.57,Millda
426,Merci,Kaja,Phi,Posner,Dunkin,497.11,568.02,Hourigan
427,Wynne,Dorice,Pond,Montgomery,Cohdwell,214.2,538.78,Saunderson
428,Roxane,Calla,Ulphia,Even,Kauppi,6.41,671.89,Shields
429,Philis,Shauna,Malvino,Evvie,Tryck,445.76,424.89,Gaal
430,Kristan,Maisey,Friede,Pitt,Gaspard,77.73,801.08,Stuart
431,Tressa,Meg,Infield,Garrison,Yuille,277.75,926.33,Codding
432,Brena,Hayley,Sasnett,Drisko,Kussell,45.17,656.37,Corrine
433,Nanete,Rosene,Argus,Rugen,Adlare,388.2,596.21,Claudine
434,Helena,Nita,Ralfston,Montgomery,Halsey,27.23,139.78,LaRue
435,Lorne,Brena,Cutlerr,Demitria,Kristi,457.04,22.83,Fax
436,Lila,Candi,Dorine,Elisha,Pierette,292.76,547.47,Bronk
437,Kirbee,Penelopa,Even,Sidonius,Autrey,465.02,231.71,Sabella
438,Ursulina,Chrystel,Jacinda,Pernick,Berriman,431.34,744.04,Drisko
439,Roberta,Arlina,Kimmie,Allina,Cosenza,221.89,663.18,Hanleigh
440,Rosabelle,Melanie,Dosia,Imelida,Shanley,94.23,368.51,Fleeta
441,Farrah,Christy,Cosenza,Jenness,Morgun,371.25,206.73,Kenney
442,Margalo,Selia,Telfer,McAdams,Newell,385.91,948.54,Bigner
443,Letizia,Fayre,Linehan,Leffen,Paine,402.35,107.2,Mintz
444,Winny,Cecile,Kirstin,Salchunas,Morgun,144.69,907.67,Bebe
445,Bee,Carol-Jean,Cynar,Faust,Taima,401.33,624.63,Donoghue
446,Madalyn,Jerry,Joeann,Bahr,Dahlia,347.31,401.11,Garbe
447,Rani,Wilma,Frendel,Raffo,Nance,195.37,374.54,Noman
448,Dode,Frances,Goerke,Malina,Sasnett,482.77,294.67,McNully
449,Ofilia,Trudie,Hillel,Mich,Cavan,221.48,474.45,Gavrila
450,Kayla,Althea,Abbot,Anderea,Roscoe,455.83,714.93,Swanhildas
451,Minne,Cassandra,Saint,Tryck,Maroney,345.28,454.7,Nicoline
452,Stacey,Netty,Rhu,Curren,Madaih,283.13,872.7,Chem
453,Marline,Sibella,Tamar,Naor,Emmaline,477.96,983.46,Odysseus
454,Annabela,Ezmeralda,Gert,Center,Meter,319.45,647.38,Lynn
455,Patricia,Mellicent,Arathorn,Avi,Bultman,250.44,587.72,Zrike
456,Dianemarie,Sadie,Chabot,Skell,Nickola,63.71,363.48,Justinn
457,Dolli,Roberta,Francyne,Rese,Mozelle,418.08,443.91,Palocz
458,Dede,Lolita,Gaynor,Niccolo,Hillel,123.54,36.53,Rubie
459,Paola,Rozele,Gahl,Marlie,Bethany,119.62,2.19,Bord
460,Jeanna,Ericka,Harday,Han,Mike,328.37,917.28,Regan
461,Daune,Cissiee,Lytton,Wadell,Francyne,341.62,37.25,Leler
462,Orsola,Fred,Noelyn,Haerr,Sidonius,82.62,36.49,Kermit
463,Clo,Kore,Haerr,Marsden,Herrera,272.67,888.4,Oneida
464,Annaliese,Arabel,Katrine,Gombach,Kevon,116.57,595.01,Maiah
465,Jenilee,Iseabal,Jarib,Lissi,Armanda,421.51,719.58,Millda
466,Jenilee,Zondra,Camden,Orpah,Amadas,85.15,1.82,Mathilde
467,Farrah,Averyl,Tyson,Sasnett,Damarra,418.15,733.39,Raul
468,Leeanne,Marylou,Knowling,Valoniah,Rocray,193.83,426.7,Payson
469,Lulita,Lucille,Bartlett,Gillan,Lumbard,252.65,127.43,Kannry
470,Nananne,Ebonee,Vastah,Hylan,Colyer,227.09,613.48,Holbrook
471,Lacie,Dede,Gilbertson,Borrell,Trey,25.4,190.38,Chobot
472,Hallie,Lila,Nunci,Susannah,Barrus,38.67,316.63,Orlene
473,Brana,Daphne,Payson,Meli,McNully,118.82,441.28,Norrie
474,Rhea,Charlena,Maisey,Burnside,Tippets,428.43,187.24,Codding
475,Millie,Roxane,Roche,Breed,Kristi,209.67,142.64,Clywd
476,Abbie,Lauryn,Suzetta,Weaks,Stevy,249.39,265.75,Posner
477,Violet,Adriana,Sasnett,Morgun,Jaylene,105.64,390.18,Suk
478,Zia,Gratia,Carmena,Turne,Suanne,395.33,553.84,Zuzana
479,Sarette,Hermione,Nore,Wadell,Skurnik,330.77,48.28,Ethban
480,Keelia,Zia,Linehan,Alva,Marisa,89.54,691,Juliet
481,Winifred,Lorie,Jerald,Nunci,Montgomery,331.92,432.36,Evvie
482,Magdalena,Celestyna,Allina,Peonir,Kinnard,99.07,743.63,Deegan
483,Daphne,Kial,Urias,Tice,Malina,439.63,618.67,Posner
484,Amii,Jessy,Nelsen,Earlie,Colbert,12.9,642.52,Kellby
485,Dominga,Linzy,Thema,Krystle,Devlen,312.79,582.08,Thilda
486,Isa,Kristan,Chauncey,Presber,Sibyls,416.09,588.8,Natica
487,Consuela,Dari,Allys,Forrer,Pattin,325.67,962.42,Killigrew
488,Ronna,Ekaterina,Ophelia,Bebe,Baudin,469.48,453.56,Jillane
489,Briney,Fawne,Lytton,Vittoria,Berriman,133.06,853.63,Gahl
490,Taffy,Roberta,Presber,Flyn,Juliet,439.13,913.97,Helfand
491,Renie,Dorene,McNully,Jerald,Jacinda,482.54,646.34,Ovid
492,Joy,Tarra,Isacco,Luhe,Lamoree,120.27,898.6,Noam
493,Sharai,Karlee,Tiffa,Wilona,Bonucci,479.71,158.85,Oster
494,Nelle,Adriana,Karna,Ietta,My,37.1,863.89,Jehu
495,Stephanie,Ada,Sibyls,Horan,Iaverne,190.9,633.61,Gaynor
496,Addia,Florie,Amasa,Sholley,Odell,195.78,360.52,Percy
497,Vinita,Charmaine,Dahlia,Stav,Bivins,327.06,83.61,Docilla
498,Eve,Elvira,Fennessy,Schenck,Mendez,100.19,178.43,Mayeda
499,Sybille,Lorie,Tremayne,Hoban,Arne,174.74,266.88,Ovid
500,Katharina,Laurene,Astra,Buffum,Lia,397.55,439.54,Cressida
501,Cam,Tami,Vacuva,Judye,Myrilla,356.95,468.97,Travax
502,Lily,Nelle,Brodench,Faria,Lewes,436.69,126,Roumell
503,Louella,Larine,Horan,Nunci,Willie,242.99,883.98,Abram
504,Raf,Mallory,Ammann,Drus,Tyson,33.48,734.48,Burkle
505,Cyndie,Chandra,Wilona,Kat,Jobi,308.17,466.62,Emanuel
506,Basia,Augustine,Taam,Soneson,Linehan,83.76,141.62,Obed
507,Annecorinne,Danika,Ries,Neils,Phaidra,400.13,852.53,Selway
508,Aili,Calla,Dowski,Mehalek,Suk,184.52,76.89,Odell
509,Florie,Lusa,Keelia,Frendel,Philipp,52.93,68.46,Robertson
510,Christian,Hannis,Nikaniki,Adamsen,Brandice,419.21,358.84,Zeeba
511,Minne,Lenna,Iaverne,Middleton,Chesna,216.89,320.84,Ellord
512,Rosanne,Jinny,Tamsky,Tryck,Kendrick,463.08,977.86,Winnick
513,Sharlene,Caritta,Estella,Reidar,Saint,137.65,638.71,Buffum
514,Raina,Caryl,Karylin,Standing,Tound,102.33,709.06,Hoban
515,Hettie,Maridel,Alva,Ulphia,Decato,295.66,832.86,Nerita
516,Jackie,Ricky,Nerita,Jagir,Tice,205.81,606.21,My
517,Lanae,Ofilia,Masao,Sheedy,Zachary,163.35,475.02,Yate
518,Farrah,Jasmina,Eno,Chinua,Milson,399.35,876.1,Winthorpe
519,Eugine,Nerta,Wyn,Drus,Edee,311.4,65.24,Diann
520,Taffy,Goldie,Etom,Fiester,Bobbee,325.57,307.52,Penelopa
521,Consuela,Laure,Brackely,Sinegold,Nikaniki,349.39,494.34,Grosz
522,Jeanna,Clementine,Ambrosia,Stelle,Pandolfi,111.96,959.45,Garek
523,Ebonee,Catrina,Bord,Palocz,Madelene,151.16,955.17,Neils
524,Arabel,Rochette,Fax,Carolin,Warthman,335.92,877.22,Joni
525,Suzette,Alejandra,Publia,Pulsifer,Wallis,430.89,907.27,Bonilla
526,Celisse,Jemie,Abernon,Hirsch,Felecia,57.39,49.36,Annice
527,Nananne,Sidoney,Neva,Stilwell,Joli,424.68,110.52,Publia
528,Margalo,Elka,Lauraine,Wareing,Morehouse,100.4,745.19,Ingra
529,Kimmy,Jillayne,Dowski,Dimitris,Blisse,155.78,912.85,Dituri
530,Gavrielle,Quintina,Ahab,Dunkin,Liva,165.59,741.03,Woodberry
531,Raina,Elora,Xerxes,Keily,Cottle,339.7,30.79,Ackerley
532,Taffy,Concettina,Mintz,Stanwood,Ciapas,302,628.59,Quinn
533,Brandise,Heida,Eldrid,Winthorpe,MacIntosh,76.16,514.48,Bashemeth
534,Belinda,Hyacinthe,Wenda,Toni,Orelee,338.91,646.94,Vacuva
535,Marcy,Edee,Braun,Larochelle,Atcliffe,432.28,619.82,Clywd
536,Nicoli,Renie,Shama,Eiser,Ellerey,286.49,472.96,Yoko
537,Valera,Merrie,Merat,Gilmour,Tufts,432.57,424.99,Kinnard
538,Gabriellia,Leeanne,Allina,Fax,Beniamino,280.14,674.22,Cressida
539,Elsie,Marti,Juliet,Pulsifer,Harriman,432.32,253.33,Kaete
540,Janenna,Valera,Uund,Noam,Myrilla,169.64,364.99,Lipson
541,Pamella,Ada,Nisbet,Regan,Lilybelle,323.08,641.35,Lamoree
542,Roslyn,Mariann,Pascia,Martsen,Gwenore,102.07,179.49,Leonard
543,Kalina,Minne,Donoghue,Moseley,Drisko,15.38,116.89,Jerold
544,Sarette,Caryl,Adlare,Fontana,Frendel,21.7,404.48,Newell
545,Cassandra,Paola,Hathaway,McNully,Stover,310.19,717.34,Bivins
546,Annice,Chickie,Freddi,Stilwell,Maisey,349.58,382.78,Ciro
547,Ebonee,Marcy,Isidore,Yam,Serilda,424.87,546.02,Erskine
548,Kate,Jillayne,Bandeen,Libna,Malina,369.24,1.31,Longfellow
549,Philis,Ekaterina,Kalinda,Nerita,Lowry,362.64,231.64,Knowling
550,Shell,Kirbee,Rossner,Lesley,Rosalba,285.19,829.13,Read
551,Estell,Lorne,Parsaye,Morrill,Erminia,257.94,36.19,Elisha
552,Sindee,Lulita,Kare,Henebry,Niccolo,478.18,262.58,Leler
553,Marguerite,Barbi,Yuille,Papageno,Bethany,171.51,184.2,Guthrie
554,Jenilee,Rivalee,Anton,Read,Martsen,474.15,767.31,Diann
555,Juliane,Xylina,Brittani,Behre,Sacken,289.28,115.79,Fosque
556,Raf,Sheree,Vernier,Laverne,Mintz,175.72,535.48,Frodi
557,Chastity,Gabriellia,Valerio,Nickola,Kazimir,104.44,658.63,Beebe
558,Hayley,Konstance,Hewitt,Lewes,Moina,314.36,196.93,Othilia
559,Jemie,Laurene,Adlare,Campball,Nadia,53.27,813.43,Colleen
560,Ricky,Tobe,Freddi,Urias,Dorine,6.67,159.66,My
561,Charissa,Deane,Fulmer,Francene,Annice,490.83,161.75,Gombach
562,Jacenta,Leontine,Dituri,Lalitta,Wu,258,149.64,Giule
563,Bill,Lynea,Jagir,Blase,Pip,18.53,418.51,Whiffen
564,Lorne,Netty,Lory,Hubert,Hermes,72.13,594.07,Kravits
565,Rori,Jillayne,Isacco,Ivens,Tound,41.38,253.58,Martsen
566,Jillayne,Justinn,McCutcheon,Remmer,Maisey,213.88,427.6,Cath
567,Gretal,Elena,Brady,Xerxes,Dyche,461.38,335.19,Luhe
568,Flo,Kayla,Keily,Celestine,Fink,147.74,641.82,Newell
569,Kristan,Valli,Kenney,Maxi,Matthew,436.09,311.68,Oscar
570,Jaime,Laure,McClimans,Old,Old,275.03,151.64,Sheng
571,Alex,Heddie,Turne,Anton,Devlen,152.91,443.68,Ledah
572,Lorenza,Sindee,McNully,Libna,Oster,129.7,700.2,Woodberry
573,Eve,Ottilie,Remmer,Olympium,Si,132.88,289.36,Vivle
574,Joeann,Carilyn,Dorine,Burnside,Darbie,136.79,790.19,Audly
575,Peri,Imojean,Bord,Wyn,Dominy,482.8,186.06,Phi
576,Jacenta,Rebeca,Stilwell,Sawtelle,Andrel,475.18,718.79,Shama
577,Zia,Florencia,Goldina,Gwenore,Carmena,95.78,656.57,Pierette
578,Michaelina,Verla,Gaspard,Arne,Burnside,281.22,972.49,Baylor
579,Gusty,Krystle,Ethban,Zola,Goldina,16.03,201.85,Tjon
580,Cristabel,Tybie,Bollay,Valerio,Howlyn,187.05,999.49,Dash
581,Joleen,Robbi,Latini,Kinnard,Pandolfi,429.97,344.05,Neva
582,Dawn,Clementine,Hortensia,Neva,Nadia,45.07,305.28,Othilia
583,Farrah,Vivia,Verger,Niles,Ader,62.23,56.66,Kamaria
584,Kirbee,Alejandra,Vacuva,Agle,Annice,329.14,29.51,Albertine
585,Mellicent,Blake,Daveta,Lesley,Edvard,480.94,773.03,Carlson
586,Madelle,Andree,Dermott,Hazlett,Faso,136.75,439.58,Ledah
587,Tracey,Kelly,Byrne,Stacy,Israeli,329.06,982.68,Edvard
588,Celisse,Marinna,Klotz,Paton,Audly,220.6,83.98,Tarrant
589,Talya,Corina,Ortrude,Madelene,Doig,319.08,793.22,Buffum
590,Bettine,Fanny,Bevin,Wilona,Cassius,223.44,819.8,Revkah
591,Ricky,Beth,Land,Dosia,Carlson,357.21,20.4,Dom
592,Rosaline,Tina,Gualtiero,Ardra,Martsen,396.44,799.75,Corabella
593,Gabi,Gerrie,Ball,Felecia,Hull,1.81,649.43,Kalinda
594,Dagmar,Antonietta,Rolf,Zamora,Joli,263.09,538.96,Helfand
595,Emmey,Kore,Camden,Georgy,Justinn,357.76,403.09,Stephie
596,Sybille,Caressa,Camden,Berard,Aida,346.91,321.59,Evangelia
597,Harmonia,Valeda,Hillel,Vivle,An,144.55,376.87,Barbey
598,Chloris,Farrah,Buckler,Tacye,Ax,430.33,873.28,Jerold
599,Loree,Cathyleen,Dex,Quinn,Joni,442.58,374.47,Mendez
600,Harmonia,Rhoda,Latini,Gaal,Japeth,226.61,573.83,Toffic
601,Louella,Alameda,Alrich,Mike,Campball,430.87,869.41,Ferino
602,Lanae,Marika,Viddah,Donoghue,Albertine,224.52,871.39,Verger
603,Edith,Leia,Phyllis,Hylan,Kermit,358.71,492.5,Minetta
604,Aeriela,Di,Aldric,Annabella,Dom,103.94,363.25,Henrie
605,Sharlene,Katleen,Imelida,Valerio,August,251.13,302.94,Podvin
606,Sam,Ilse,Plato,Lail,Edvard,26.71,202.45,Gabrielli
607,Gratia,Gwyneth,Linehan,Franza,Shelba,298.97,79.98,Cohdwell
608,Sashenka,Randa,Wareing,Baudin,Loleta,107.9,325.87,Fairweather
609,Odessa,Ellette,Fitzsimmons,Reidar,Lissi,399.71,237.01,Mich
610,Sean,Celene,Johanna,Autrey,Monk,268.69,848.2,Chauncey
611,Wilma,Kara-Lynn,Dulciana,Nicoline,Dulciana,341.24,418.59,Atcliffe
612,Lindie,Paola,Alwin,Medrek,Zetta,370.45,674.27,An
613,Aurelie,Addia,Meli,Reinke,Brunell,311.13,183.66,Johnsson
614,Korrie,Averyl,Hourigan,Marden,Glovsky,435.41,974.97,Lynn
615,Josephine,Catharine,Verger,Latini,Jagir,173.33,167.81,Sammons
616,Ruthe,Yvonne,Millda,Amasa,Bendick,274.45,975.24,Podvin
617,Sherrie,Chastity,Marsden,Byrne,Sancho,55.46,482.15,Lymann
618,Tabbatha,Kirbee,Koziara,Briney,Flyn,272.81,382.7,Natica
619,Nonnah,Malina,Salchunas,Lenny,Anestassia,210.75,191.84,Taima
620,Vere,Betta,Tufts,Giff,Hewitt,266.41,830.29,Fairweather
621,Raina,Gabi,Goddard,Cleavland,Belanger,57.82,419.67,Jeanne
622,Cristabel,Tarra,Kronfeld,Ax,Gower,39.29,609.37,Cyrie
623,Fanchon,Collen,Thema,Madelene,Eno,102.82,987.74,Hieronymus
624,Frank,Ofilia,Oster,Annice,Gahl,325.95,651.14,Westphal
625,Marsiella,Kelly,Donell,Schonfeld,Wenoa,372.58,330.22,Bouchard
626,Hallie,Brandise,Saree,Nelsen,Imelida,38.43,613.09,Ricarda
627,Corry,Grier,Maxi,Brackely,Emmaline,177.1,878.96,Concha
628,Rosene,Antonietta,Janith,Verger,Si,495.34,443.54,Faust
629,Annice,Angela,Susannah,Regan,Zola,445.37,415.76,Roxanna
630,Addia,Candi,Ophelia,Himelman,Kolnick,256.85,981.93,Hashim
631,Konstance,Joy,Rosalba,Dearborn,Ferrell,91.73,428.58,Korey
632,Lilith,Tami,Diann,Salchunas,Moina,132.18,184.25,Vorster
633,Delilah,Josephine,Tengdin,Flita,Hertzfeld,203.41,2.29,Izaak
634,Bibby,Basia,Hartnett,Elo,Hieronymus,376.66,969.35,Klemperer
635,Danika,Vivia,Weitman,Yuille,Arley,105.18,300.02,Kristi
636,Jordan,Merle,Lynn,Kiersten,Raffo,28.03,101.99,Brady
637,Dolli,Mara,Oster,Yorick,Publia,471.72,591.64,Hanshaw
638,Janey,Cathie,Glenden,Zuzana,Kat,133.67,804.17,Jerold
639,Nananne,Jerry,Ackerley,Karl,Tacye,83.64,13.64,Ricarda
640,Loree,Edee,Naor,Center,Virgin,187.82,70.25,Barney
641,Tami,Coral,Reinke,Iphlgenia,Lytton,461.36,117.57,Bonilla
642,Rori,Therine,Amadas,Dosia,Atcliffe,333.27,667.03,Reidar
643,Elfreda,Ursulina,Presber,Lane,Corabella,421.87,14.64,Swanhildas
644,Rori,Verla,Melony,Rosette,Mehalek,438.08,589.4,McNully
645,Trudie,Bobinette,Lissi,Eliathas,Virgin,41.84,380.06,Lane
646,Kathy,Renae,Janith,Kiersten,Bettine,382.78,415.96,Bates
647,Kial,Briney,Paton,Cadmar,LaRue,211.13,966.42,Ovid
648,Robinia,Rosabelle,Bahr,Cohdwell,Fink,403.7,777.16,Ammann
649,Kirbee,Judy,Rosemary,Lacombe,Tremayne,138.62,224.71,Han
650,Perry,Jasmina,Nickola,Cleavland,Roxanna,249.47,430.21,Lewes
651,Felice,Barbara,Carvey,Chandler,Chabot,134.21,529.52,Egbert
652,Dode,Natka,Munn,Egbert,Campball,195.14,556.02,Janith
653,Aili,Jacquetta,Destinee,Taima,Sallyann,319.65,314.9,Saint
654,Bobinette,Alejandra,Avi,Weinreb,Carvey,295.26,179.17,Cassius
655,Laure,Harrietta,Fax,Zeeba,Ventre,218.91,735.66,Paine
656,Ricky,Ronna,Selway,Edee,Warthman,459.18,349.18,Mehalek
657,Roslyn,Dede,Cottle,Alabaster,Remmer,31.06,837.74,Lacombe
658,Brooks,Bettine,Decato,Shama,Tremayne,280.2,86.37,Lindemann
659,Sarette,Marcy,Dunkin,Schwejda,Raychel,28.46,585.77,Yusuk
660,Aurelie,Hettie,Decato,Smitt,Zeeba,205.62,92.05,Karl
661,Lusa,Xylina,Knowling,Colbert,Beniamino,33.92,276.2,Ietta
662,Rosaline,Asia,Shields,Edee,Vernier,248.09,118.65,Anis
663,Rebeca,Ardys,Weaks,Tarrant,Magdalen,467.91,804.13,Garlinda
664,Consuela,Gwenneth,Sandye,Stover,Remmer,166.44,751.33,Hedve
665,Nananne,Donetta,Crudden,Ambrosia,Shuler,12.93,180.48,Hilbert
666,Kathi,Pamella,Karylin,Wyn,Milde,380.98,834.14,Revkah
667,Nerta,Joceline,Bow,Riordan,Zachary,290.49,881.56,Alrich
668,Zondra,Sophia,Tjon,Robertson,Aurelio,296.01,34.09,Melleta
669,Cherilyn,Fina,Tillford,Moina,Kevon,391.6,148.75,Morgun
670,Clarice,Tobe,Saunderson,Daegal,Sisile,166.81,805.95,Aida
671,Ardenia,Albertina,Dichy,Moina,Weide,297.6,250.96,Colbert
672,Blondelle,Nonnah,Natica,Stacy,Hashim,108.35,139.97,Fitzsimmons
673,Atlanta,Farrah,Arne,Ariella,Darbie,421.17,444.32,Soneson
674,Sidoney,Lyssa,Kristi,Gibbeon,Marsden,332.14,299.16,Elephus
675,Kore,Elena,Codding,Wyn,Zuzana,478.48,644.78,Lilas
676,Janenna,Kalina,Kamaria,Lucienne,Dosia,402.71,370.69,Candy
677,Wileen,Shirlee,Loeb,Emerson,Wareing,243.05,722.18,Zetta
678,Mallory,Carilyn,Penelopa,Rugen,Chandler,418.4,418.8,Merriott
679,Zaria,Hollie,Burch,Emanuel,Sandye,167.7,225.66,Curren
680,Bibby,Ada,Krystle,Korey,Maples,345.81,995.89,Jalbert
681,Bee,Annice,Bivins,Charmine,Argus,437.8,977.68,Juan
682,Susan,Tracey,Karna,Erich,Henrie,359.32,326.9,Maxi
683,Bernardine,Rosabelle,Zenas,Catie,Bettine,205.28,873.43,Lareena
684,Sarette,Lila,Ricki,Tengdin,Leonard,137.65,449.26,Jalbert
685,Chrystel,Gabriellia,Bethany,Tomasina,Taima,252.93,701.02,McClimans
686,Sandie,Dania,Noelyn,McAdams,Jalbert,365.42,275.14,Ashely
687,Mireielle,Jacquetta,Hilbert,Larochelle,Glovsky,418.31,984.65,Philipp
688,Kara-Lynn,Bernardine,Konyn,Goddard,Dosia,392.13,659.98,Matthew
689,Sissy,Jessy,Allys,Wenda,Nunci,205.07,470.91,Merat
690,Alie,Glenda,Hull,Afton,Lalitta,389.27,63.68,Presber
691,Ezmeralda,Pearline,Khorma,Smitt,Anselmi,472.1,905.31,Demitria
692,Lita,Lisette,Hamil,Franza,Henebry,75.53,418.67,Sigfrid
693,Blake,Bobinette,Stanwood,Dawkins,Olympium,486.58,912.87,Rossner
694,Cristabel,Arabel,Euridice,Orelee,Clywd,475.68,175.18,Hachmin
695,Elie,Loree,Cath,Buttaro,Standing,34.55,963.82,Kirstin
696,Micheline,Pearline,Terencio,Jaylene,Byrne,376.95,890.85,Brieta
697,Gerrie,Gilda,Lytton,Pelagias,Stacy,351.14,532.29,Bury
698,Marita,Minne,Melan,Lorenz,Phi,479.87,544.74,Harl
699,Elora,Tiffie,Romelda,Merat,Arvo,72.69,16.77,Dyche
700,Jinny,Mahalia,Deny,Sallyann,Gibbeon,115.16,311.49,Iphlgenia
701,Melodie,Marcelline,Casimir,Rustice,Kat,371.26,928.26,Blase
702,Elfreda,Nerta,Sothena,Oneida,Tippets,415.74,537.04,Leler
703,Aaren,Vita,Cherianne,Alfons,Westphal,428.6,128.57,Harl
704,Stacey,Roseline,Truc,Latini,Hedve,82,85.24,Egbert
705,Candi,Joane,Maxi,Behre,Randene,313.87,692.02,Madaih
706,Ileana,Janey,Melony,Valerio,Ax,101.07,885.87,Lattie
707,Yolane,Jasmina,Baylor,Delp,Wenoa,133.27,895.18,Kristi
708,Coral,Heddie,Chinua,Bouchard,Schwejda,173.15,381.24,Decato
709,Carol-Jean,Ernesta,Wooster,Iiette,Revkah,352.12,124.52,Gamaliel
710,Jacquetta,Tori,Baudin,Burkle,Lalitta,444.66,915.72,Henrie
711,Kristina,Cordi,Carmena,Wattenberg,McClimans,314.78,948.5,Kronfeld
712,Merry,Sallie,Harriman,Wu,Eliathas,126.46,387.97,O'Rourke
713,Tybie,Fanny,Stacy,Prober,Hashim,416.38,702.8,Chesna
714,Tilly,Ardys,Edison,McCutcheon,Estella,320.46,287.85,Fairweather
715,Elka,Audrie,Alexandr,Mike,Edee,367.23,255.63,Stelle
716,Rhea,Vinita,Therine,Johanna,Donoghue,262.57,581.54,Raffo
717,Bibby,Sam,Oscar,Juan,Rogerio,118.97,841.58,Klotz
718,Cassondra,Fanchon,Phyllis,Carey,Kannry,139.24,556.93,Eiser
719,Marika,Damaris,Corabella,Nea,Hathaway,267.44,131.47,Jethro
720,Maurene,Daphne,Hillel,Sperling,Elo,68.56,509.48,Shanley
721,Frieda,Sibella,Hessler,Helve,Olympium,250.32,534.59,Amethist
722,Aubrie,Rosaline,Valerio,Aldric,Freddi,169.09,675.71,Euridice
723,Ursulina,Cissiee,Middleton,Prouty,Colbert,328.94,478.48,Shama
724,Helsa,Danika,Tannie,Love,Eben,24.4,39.93,Bultman
725,Katharina,Deirdre,Dreda,Elbertina,Slifka,383.34,800.17,Ax
726,Brena,Tani,Dosia,Dannye,Weinreb,351.67,353.63,Merat
727,Teriann,Emylee,Kinnard,Leary,Stanwood,326.66,29.07,Modie
728,Corry,Luci,Pearse,Kinnard,Nahum,270.51,933.69,Paine
729,Melodie,Petronia,Cherianne,Tufts,Bluh,178.98,168.96,Sherfield
730,Dulcinea,Dorthy,Olin,Edvard,McClimans,164.54,524.85,Mauer
731,Goldie,Mary,Schlosser,Solitta,Vharat,389.64,60.03,Brian
732,Georgina,Joleen,Wesle,MacIntosh,Keelia,183.48,832.16,Vanni
733,Chere,Ebonee,Gherardo,Campball,Darrell,480.16,150.07,Martguerita
734,Anthia,Bobinette,Shuler,Chapland,Stover,277.55,153.83,Schlosser
735,Dania,Marjie,Sharl,Carvey,Karna,120.2,331.49,Daniele
736,Marline,Daune,Cordi,Lilas,Tatianas,62.29,898.12,Goldina
737,Olwen,Maryellen,Firmin,Goth,Bultman,144.91,30.61,Zaslow
738,Raf,Claresta,Faso,Arquit,Westphal,244.92,104.23,Egbert
739,Roseline,Deloria,Sherrie,Loeb,Terencio,475.72,158.28,Berard
740,Hyacinthe,Aaren,Masao,Moseley,Means,223.32,852.83,Parette
741,Atlanta,Lilith,Orelee,Sharl,Callista,187.05,222.99,Zeeba
742,Marinna,Calla,Yuille,Mauer,Egbert,356.76,968.95,Edvard
743,Winny,Gusella,Laverne,Hathaway,Baptlsta,212.05,376.6,Ricarda
744,Cassondra,Andree,Glenden,Riva,Robertson,58.65,314.2,Anselmi
745,Sheree,Mahalia,Cleo,Wareing,LaRue,317.37,271.3,Ellord
746,Mathilda,Tonia,Lunsford,Karna,Karylin,329.83,547.53,Lindemann
747,Marjie,Brianna,Sasnett,Sammons,Yate,241.38,533.75,Kylander
748,Maye,Nita,Letsou,Hailee,Uund,96.88,70.73,Cyrie
749,Karina,Ricky,Erminia,Burch,Merriott,10.29,244.91,Germann
750,Dulce,Mamie,Douglass,Codding,Alva,449.1,362.1,Even
751,Josephine,Nonnah,Goode,Flyn,Cyrie,148.25,942.36,Abram
752,Cassandra,Aigneis,Thunell,Skell,Ventre,466.07,277.52,Evangelia
753,Augustine,Laurene,Haymes,Marcellus,Madox,395.54,132.2,Ricarda
754,Ardenia,Vinita,Gillan,Eliathas,Zola,480.21,938.02,Schwejda
755,Noelle,Kittie,Cornelia,Casimir,Manolo,297.77,477.68,Johnsson
756,Damaris,Anthia,Cassius,Curren,Zitvaa,487.68,483.79,Fax
757,Kirbee,Laurene,Constancy,Sharl,Cimbura,60.98,37.64,Greyson
758,Karlee,Lizzie,Eben,Raama,Lindemann,326.1,931.33,Evangelia
759,Barbi,Ann-Marie,Hedve,Naashom,Wittie,396.98,512.44,Riordan
760,Flory,Angelique,Stevy,Jehu,Chauncey,83.73,398.96,Suanne
761,Teddie,Di,Nore,Xerxes,Hieronymus,256.55,168.37,Baylor
762,Barbara,Teriann,Justinn,Read,Raffo,339.67,192.81,Joni
763,Eugine,Loree,Urania,Johanna,Dorothy,406.78,906.2,McCutcheon
764,Sean,Cassandra,Redmond,Thornburg,Dorcy,139.38,134.39,Konyn
765,Dulce,Kaia,Ranjiv,Bow,Vins,20.62,169.77,Arquit
766,Kenna,Donnie,Haldas,Henrie,Jacqui,91.04,838.68,Slifka
767,Rori,Ida,Adrienne,Candy,Goth,37.15,926.98,Weide
768,Alexine,Cindelyn,Pascia,Evangelia,Leary,333.2,531.8,Greenwald
769,Hannis,Nita,Thar,Corilla,Madaih,223.71,973.79,Hylan
770,Tressa,Roxane,Quent,Joli,Garrison,260.84,924.17,Oneida
771,Susan,Judy,Honoria,Luhe,Narton,499.61,427.63,Rosemary
772,Hyacinthe,Ilse,Allare,Gert,Faso,440.5,751.28,Alexandr
773,Dianemarie,Alameda,Cherianne,Scammon,Toni,276.16,145.47,Decato
774,Sashenka,Laurene,Gale,Aurelio,Raimondo,316.65,508.6,Burkle
775,Grier,Jasmina,Erlandson,Rolf,Middleton,360.14,726.57,Camden
776,Rosene,Gilda,McAdams,Anselmi,Adore,462.56,55.51,Ranjiv
777,Dianemarie,Ardys,Fadiman,Wilona,Florina,327.59,679.39,Bethany
778,Mahalia,Justinn,Joseph,Poll,Kunin,225.85,474.09,Pulsifer
779,Maye,Meg,Joni,Lasley,Prober,133.35,234.45,Jena
780,Christian,Yvonne,Dorine,Tiffa,Alfons,189.9,63.95,Shirberg
781,Krystle,Doralynne,Haldas,Rosalba,Kolnick,352.9,239.16,Rheingold
782,Ayn,Felice,Kaete,Ventre,Sothena,352.05,473.31,Kazimir
783,Karena,Ethel,Raimondo,Iaverne,Bury,3.17,97.11,Iaverne
784,Genevra,Darlleen,Darrell,Leifeste,Elephus,493.81,806.12,Haerr
785,Justinn,Sonni,Bibi,Sherrie,Lynn,347.27,363.08,Hessler
786,Stephanie,Marnia,Secrest,Seumas,Malanie,43.67,697.61,Magdalen
787,Jasmina,Dianemarie,Pond,Cutlerr,Ruvolo,112.82,767.76,Palocz
788,Ivett,Aeriela,Fry,Estella,Calhoun,360.32,210.72,Alisia
789,Blondelle,Rivalee,Ethban,Albertine,Love,203.34,513.28,McAdams
790,Bobinette,Claresta,Christal,Libna,Boehike,238.06,188.34,Abram
791,Melanie,Selia,Lissi,Bryna,Modie,414.69,322.33,Stuart
792,Elvira,Jolyn,Stav,Bohlin,Decato,87.21,217.57,Bow
793,Ketti,Dominga,Wilkinson,Robertson,Meli,19.49,447.16,Roumell
794,Jenilee,Celene,Kalinda,Hamil,Travax,162.85,483.44,Jacinda
795,Ezmeralda,Leeanne,Berl,Alrich,Gombach,82.39,786.25,Connelly
796,Sidoney,Chere,Clara,Nunci,Craggie,249.76,227.91,Cath
797,Consuela,Kary,Nickola,Judye,An,335.2,196.9,Shelba
798,Maurene,Debee,Rheingold,Vacuva,Denis,446.24,784.88,Zaslow
799,Sherrie,Dolli,Llovera,Bates,Kirbee,422.63,421.66,Saree
800,Harrietta,Lusa,Edee,Genna,Nikaniki,242.93,477.32,Wiener
801,Brana,Dorice,Corabella,Kylander,Rosemary,143.88,935.39,Soneson
802,Sabina,Hollie,Leffen,Melony,Adalbert,123.81,472.31,Strephon
803,Kellen,Renie,Santoro,Gower,Fennessy,302.66,187.61,Eldrid
804,Gianina,Minda,Berne,Reinke,Herrera,388.65,202.58,Tice
805,Ninnetta,Ida,McClimans,Stav,Rolf,130.92,286.55,Riordan
806,Doro,Magdalena,Rad,Gaulin,Cullin,113.42,444.96,Ferrell
807,Kore,Elena,Haldas,Hessler,Ledah,141.83,860.03,Willie
808,Kylynn,Marleah,Alcott,Munn,Thar,398.11,404.24,Nunci
809,Monika,Rhea,Cynar,Gale,Bach,351.29,708.89,Marlie
810,Marcelline,Caressa,Letsou,Beniamino,Terrence,428.77,5.15,Jena
811,Steffane,Imojean,Mandler,Thad,Zachary,181.95,399.5,Suzetta
812,Alie,Lolita,Jacobah,Dudley,Firmin,25.1,564.57,Danby
813,Jany,Brynna,Malanie,Serilda,Fry,457.37,241.25,Marsden
814,Cyndie,Shannah,Luhe,Stephie,Mullane,442.49,341.15,Clara
815,Mady,Elmira,Hartnett,Dosia,Heisel,16.74,71.52,Mendez
816,Kamilah,Arabel,Vale,Juan,Alrich,62.75,576.91,Christine
817,Elora,Charissa,Han,Kress,Vivle,18.17,912.24,Chrystel
818,Ilse,Joeann,Stav,Gwenore,MacIntosh,453.25,986.47,Thunell
819,Lila,Margalo,Niccolo,Orelee,Merriott,330.29,501.36,Kazimir
820,Mireielle,Livvyy,Kenney,Latini,Berne,338.6,836.55,Keily
821,Starla,Zondra,Hilbert,Strephon,Weide,475.62,214.42,Dawkins
822,Felice,Valli,Urania,Gale,Daveta,259.76,509.38,Terrence
823,Elyssa,Wendi,Morgun,Ivens,Goldina,183.54,644.91,Bevin
824,Bibby,Liana,Rocray,Bury,Stanwood,427.15,503.6,Stacy
825,Mariele,Elbertina,Gamaliel,Karylin,Ariella,113.04,358.29,Boehike
826,Chastity,Leia,Nickola,Rhu,Loleta,455.98,701.39,Ambrosia
827,Rosaline,Meriel,Toni,Diogenes,Tayib,439.32,870.01,Marlie
828,Tracey,Marguerite,Estella,Grobe,Lauraine,399.97,988.16,Rolf
829,Bibby,Charlena,Ardra,Standing,Simmonds,59.94,145.9,Paine
830,Noelle,Tressa,Iphlgenia,Harned,Gemini,2.22,618.43,Thad
831,Hermione,Winny,Corilla,Reneta,Rocray,384.05,385.24,Cleavland
832,Hermione,Arlina,Urania,Rheingold,Taam,327.76,519.89,Dom
833,Robbi,Agnese,Braun,Harl,Anyah,153.91,483.94,Sawtelle
834,Lynnea,Angelique,Nadia,Earlie,Pernick,171.5,714.83,Florina
835,Rebeca,Konstance,Cavan,Sammons,Goldina,26.05,664.59,Tengdin
836,Elena,Emma,Carvey,Kussell,Modie,194.06,905.93,Hirsch
837,Donetta,Jsandye,Tannie,Bow,Niles,365.74,463.01,Amand
838,Cassondra,Jaime,Ramona,Zeeba,Trey,78.6,754.04,Callista
839,Vinita,Pierette,Candy,Gilbertson,Wu,413.61,656.97,Sancho
840,Bee,Katleen,Joachim,Chinua,Kunin,26.51,111.83,Robertson
841,Johna,Dianemarie,Chrystel,Gherardo,Azeria,398.07,337.89,Rad
842,Joelly,Amara,Frodi,Berard,An,389.56,523.89,Kylander
843,Madelle,Minne,Fabiola,Margret,Firmin,413.46,641.21,Bohlin
844,Lacie,Grier,Diogenes,Georgy,Old,268.82,939.38,Leopold
845,Mariann,Frieda,Bartlett,Crudden,Yusuk,118.4,399.7,Loleta
846,Sallie,Kristan,Cassius,Means,Bahr,382.26,220.5,Gaulin
847,Ebonee,Allis,Kosey,Gaulin,Monk,398.64,452.74,Bluh
848,Marleah,Merci,Barrus,Fleeta,Edee,348.65,55.6,Holtz
849,Lucille,Ekaterina,Ammann,Briney,Edmund,34.02,955.04,Hewitt
850,Wileen,Lizzie,Killigrew,Viddah,Krystle,472.4,31.79,Stephie
851,Asia,Phedra,Eliathas,Kress,Gualtiero,54.2,186.87,Kannry
852,Catrina,Marcy,Bennie,Obed,Cullin,37.53,307.26,Remmer
853,Rebeca,Corry,Allare,Publia,Gherardo,7.73,79.99,Alexandr
854,Sophia,Kaja,Riordan,Celestine,Anton,80.51,74.6,Roscoe
855,Bibby,Jean,Raseda,Wadell,Ammann,24.41,91.2,Manolo
856,Stephanie,Cecile,Seligman,Bultman,Westphal,356.53,446.46,Dunkin
857,Fawne,Lory,Reidar,Alarise,Bohlin,78.41,720.75,Silvan
858,Lorenza,Michaelina,Alcott,Zachary,Firmin,269.26,901,Jess
859,Jan,Consuela,Johnsson,Engdahl,Bearnard,163.22,918.91,Diogenes
860,Rubie,Carol-Jean,Ball,Caitlin,Fry,66.83,342.01,Zitvaa
861,Ida,Wileen,Anselmi,Salvidor,Sprage,310.83,854.87,Gaspard
862,Ezmeralda,Shaylyn,Rustice,Isidore,Wyn,137.85,134.42,Karna
863,Alejandra,Reeba,Reidar,Isidore,Anestassia,119.67,110.53,Cyrie
864,Joy,Marti,Hillel,Kimmie,Arathorn,230.55,448.26,Moina
865,Gwyneth,Danika,Barrus,Cherianne,Nadia,451.25,188.6,Mott
866,Sallie,Laure,Parette,Newell,Cloris,215.65,712.79,Tristram
867,Bernie,Jerry,Hedve,Herrera,Jerald,137.82,754.93,Francene
868,Olivette,Lucy,Sidonius,Evangelia,Anderea,90.05,300.46,Valerio
869,Harmonia,Josephine,Japeth,Trey,My,370.87,477.68,Forrer
870,Ada,Candi,Judye,Sacken,Jacobah,491.65,732.14,Zamora
871,Tina,Berta,Vastah,Teryn,Wolfgram,321.42,498.02,Edvard
872,Lita,Dorice,Nisbet,Eno,Gualtiero,292.61,347.04,Dulciana
873,Leanna,Catrina,Demitria,Seagraves,Fitzsimmons,483.77,107.72,Beniamino
874,Tierney,Abbie,Daniele,Reinke,Ulphia,395.03,628.38,Sherrie
875,Barbi,Harmonia,Chapland,Konyn,Gale,262.75,502.28,Nickola
876,Raina,Lory,Dearborn,Kirbee,Pond,115.07,198.27,Egbert
877,Elora,Inga,Sadowski,Eldrid,Middleton,35.23,958.25,Hedve
878,Dari,Elie,Mayeda,Quinn,Ashely,102.92,342.26,Maisey
879,Kaia,Vivia,Erskine,Ingra,Gaal,405.1,261.67,Boehike
880,Valli,Tiffie,Loring,Sikorski,Hermes,154.91,995.48,Peti
881,Winny,Kary,Mandler,Virgin,Jobi,308.26,324.13,Liva
882,Carmela,Edyth,Bashemeth,Jalbert,Roarke,328.62,446.24,Wind
883,Belva,Jaclyn,Malanie,Buffum,Hirsch,367.17,316.5,Cornelia
884,Zondra,Bertine,Nickola,Vharat,Adlare,64.98,492.48,Katrine
885,Mamie,Hettie,Craggie,Haymes,Gwenore,380.15,446.82,Boehike
886,Sue,Bobinette,Oneida,Carleen,Oster,431.18,187.59,Torray
887,Hyacinthe,Minne,Shaddock,Calhoun,Phyllis,168.92,108,Diann
888,Hallie,Nyssa,Miru,Charity,Carleen,266.94,709.17,Melony
889,Sashenka,Binny,Camden,Rheingold,Lumbard,106.9,679.21,Winnick
890,Nananne,Teriann,Freddi,Chesna,Merell,141.68,578.07,Ax
891,Max,Rivalee,Stacy,Thar,Holbrook,148.1,861.56,Monaco
892,Carly,Mara,Dom,Hunfredo,Markman,61.59,491.09,Yorick
893,Hayley,Micheline,Rolf,Glovsky,Fadiman,495.26,137.68,Verger
894,Randa,Merci,Celestine,Raychel,Shanley,248.33,95.96,Durante
895,Dorthy,Romona,Zrike,Cutlerr,Adamsen,437.28,617.38,Pillsbury
896,Rosaline,Ada,Girardo,Gaulin,Fiester,8.31,370.87,Anton
897,Sashenka,Teriann,Smitt,Tyson,Keily,203.23,570.38,Adalbert
898,Myriam,Oona,Fry,Odell,Ivens,40.13,966.98,Thunell
899,Amara,Michaelina,Lipson,Alarise,Kamaria,147.25,891.97,Letsou
900,Trudie,Elena,Abbot,Fiann,Narton,419.07,591.76,O'Rourke
901,Sarette,Lila,Brandice,Amethist,Codding,310.61,880.89,Phyllis
902,Gavrielle,Millie,Kirbee,Zeeba,Kosey,392.55,414.35,Chinua
903,Maisey,Noelle,Malvino,Loring,Valerio,291.53,806.63,Rudolph
904,Kenna,Ottilie,Himelman,Pearse,Yusuk,345.93,943.83,Raffo
905,Kore,Fernande,Rooney,Ruvolo,Pacorro,482.18,59,Adamsen
906,Alameda,Emma,Euridice,Brady,Wenda,469.88,691.46,Hamil
907,Ebonee,Ermengarde,Evvie,Natica,Sothena,427.74,254.5,Paton
908,Kaia,Tobe,Kristi,Ellord,Korey,133.49,268.32,Wolfgram
909,Doro,Dania,Serilda,Garek,Wildermuth,451.13,770.58,Pond
910,Daryl,Marcelline,Astra,Barrus,Berriman,442.34,591.2,Cavan
911,Gwenneth,Caryl,Toni,Hortensia,Wilkinson,57.53,141.43,Francyne
912,Loree,Jordan,Stoller,Kylander,Felizio,141.26,365.06,Shama
913,Ekaterina,Helsa,Fennessy,Horan,Hourigan,368.95,32.76,Ashely
914,Hallie,Nollie,Hourigan,Bettine,Arvo,207.11,349.9,Pyle
915,Shaine,Mathilda,Liebermann,Regan,Slifka,382.54,345.4,Mathilde
916,Doro,Emilia,Janith,Marisa,Narton,186.63,481.52,Bollay
917,Inga,Ada,Kamaria,Gherardo,Christine,279.99,363.6,Ummersen
918,Cyb,Ernesta,Curren,Parsaye,Vernier,349.96,98.97,Norrie
919,Meg,Mamie,Hourigan,Ephrem,Suk,320.8,405.19,Selway
920,Valli,Millie,Stacy,Si,Riva,188.61,883.28,Ludewig
921,Carmela,Pierette,Terencio,Septima,Chick,355,659.65,Quent
922,Benita,Wileen,Roscoe,Rocray,Angelis,283.07,579.24,Ardeha
923,Wendi,Loree,Dorcy,Evvie,Voletta,281.02,383.49,Zola
924,Molli,Fernande,Ader,Alexandr,Brackely,74.51,237.44,Eldrid
925,Lily,Ada,Lorenz,Auberbach,Warthman,213.53,89.37,Mike
926,Anica,Myrtice,Weaks,Ventre,Paine,500.52,9.9,Verger
927,Annice,Tabbatha,Abram,Phi,Ariella,180.21,211.47,Dannye
928,Selma,Phedra,Hartnett,Kendrick,Denis,290.95,509.73,Melony
929,Giustina,Angelique,Codding,Ochs,Ventre,421.77,865.78,Dorine
930,Letizia,Georgetta,Rubie,Hanleigh,Fillbert,40.71,299.91,Boehike
931,Mathilda,Rubie,Rona,Persse,Taam,222.42,760.98,Fredi
932,Kenna,Mildrid,Pandolfi,Torray,Firmin,442.02,468.67,Etom
933,Liana,Donnie,Jalbert,Lunsford,Ariella,61.07,593.23,Klemperer
934,Ariela,Cordi,Dosia,Nedrud,Taam,392.71,422.03,Haymes
935,Addia,Johna,Rozanna,Catie,Wilkinson,490.06,399.14,Ralfston
936,Leontine,Lory,Emanuel,Voletta,Scammon,456.14,133.28,Halsey
937,Dulcinea,Jolyn,Sherrie,Niccolo,Bow,132.57,932.25,Ilka
938,Phedra,Albertina,Arley,Vittoria,Means,287.38,719.43,Gombach
939,Hayley,Renie,Cohdwell,Old,Eno,195.42,258.46,Wadell
940,Lily,Barbara,Leffen,Seagraves,Reneta,436.61,474.55,Junie
941,Angelique,Mady,Wittie,Center,Diogenes,214.82,137.95,Kristi
942,Krystle,Ardenia,Calhoun,Tengdin,Modie,260.77,963.6,Hoban
943,Dyann,Lory,Zrike,Kravits,Kevon,392.14,253.98,Minetta
944,Dari,Jacquetta,Ferrell,Papageno,Telfer,218.04,602.42,Eldrid
945,Chickie,Karlee,Marsden,Olin,Ax,159.4,307.72,Euridice
946,Claresta,Alleen,Torray,Shelba,Tybald,53.55,507.72,Hathaway
947,Valeda,June,Damarra,Toffic,Tillford,102.96,43.26,Othilia
948,Peri,Marsiella,Bigner,Atcliffe,Hollingsworth,453.37,628.31,Yorick
949,Shel,Chrystel,Kaja,Roxanna,Baylor,396.48,240.51,Ventre
950,Merci,Mallory,Konyn,Cutlerr,Eiser,296.31,876.32,Dosia
951,Vanessa,Violet,Suzetta,Clara,Carvey,319.46,818.08,Ahab
952,Oralee,Christian,Pond,Abram,Hilbert,480.66,840.78,Redmond
953,Desirae,Pamella,Niles,Wattenberg,Fancie,17.05,979.51,Iphlgenia
954,Chrystel,Kirbee,Hamil,Baylor,Schwejda,375.13,440.46,Cadmar
955,Veda,Gabriellia,Reinke,Byrne,Susannah,4.67,155.76,Gombach
956,Pearline,Doro,Keelia,Infield,Charity,20.76,677.09,Desai
957,Phylis,Joeann,Melony,Ulphia,Evvie,150.46,598.89,O'Carroll
958,Ilse,Constance,Pyle,Amand,Hirsch,25.44,680.27,Breed
959,Sallie,Ebonee,Ackerley,Meli,Vittoria,147.48,348.37,Kunin
960,Ardeen,Eolanda,Lalitta,Tufts,Rudolph,258.85,214.05,Curren
961,Frieda,Cyndie,Tippets,Thema,Mich,353.12,595.48,Posner
962,Cathie,Nannie,Juan,Elbertina,Edee,423.61,55.54,Sparhawk
963,Isa,Frieda,Amand,Kenney,Kauppi,218.83,493.29,Moina
964,Kara-Lynn,Tamqrah,Marden,Killigrew,Dahlia,437.91,649.06,Vacuva
965,Rhoda,Rubie,Michella,Arvo,Penelopa,58.23,593.95,Dalli
966,Dale,Nickie,Merna,Bobbee,Bertold,308.92,485.25,Eiser
967,June,Kimberley,Ioab,Modie,Dahlia,20.3,831.91,Fiester
968,Roz,Beatriz,Thema,Beniamino,Bettine,105.04,23.76,Idelia
969,Aili,Anestassia,Kirstin,Leifeste,Parsaye,294.8,79.68,Deegan
970,Paulita,Xylina,Raffo,Turne,Gale,1.31,516.48,Septima
971,Mathilda,Bill,Francyne,Nelsen,Pyle,325.79,713.56,Amand
972,Maye,Elora,Granoff,Henebry,Marcellus,180.43,442.07,Khorma
973,Nadine,Reeba,Tryck,Tamsky,Linehan,278.75,136.58,Atonsah
974,Jacenta,Hildegaard,Roche,Weide,McGrody,229.75,903.33,Roche
975,Lila,Leona,Hubert,Goddard,Anestassia,389.85,441.09,Goerke
976,Charlena,Daune,Lissi,McCutcheon,Ellord,10.55,735.69,Vittoria
977,Sara-Ann,Hyacinthe,Adalbert,Aaberg,Seumas,262.28,337.6,Creamer
978,Verla,Olwen,Wind,Kosey,Bury,413.71,4.7,Adore
979,Gusella,Inga,Liva,Marlie,Ventre,497.93,117.05,Aprile
980,Cyndie,Yvonne,Desai,Tomasina,Ophelia,450.68,441.89,Chandler
981,Brena,Stevana,Loeb,Janene,Center,35.65,725.2,Mayeda
982,Linet,Orelia,Erminia,Lipson,Dulciana,427.54,233.48,Kussell
983,Lisette,Elsie,Chapland,Ophelia,Nance,113.51,485.26,Ehrman
984,Maurene,Vivia,Natalia,Hoenack,Karl,287.25,76.94,Junie
985,Aurore,Anallese,Chem,Hermes,Suk,200.96,749.82,Margret
986,Rhea,Shirlee,Brackely,Lytton,Corabella,380.25,176.42,Briney
987,Theodora,Aubrie,Pillsbury,Wu,Gahl,435.49,975.02,Shields
988,Ricky,Tobe,Burch,Billye,Whiffen,135.75,484.53,An
989,Lila,Blondelle,Ciapas,Sheedy,Sundin,301.34,161.83,Pacorro
990,Nadine,Desirae,Kaja,Abernon,Suzetta,43.29,567.96,Jarib
991,Julieta,Ada,Virgin,Fiann,Xerxes,186.61,500.69,Johanna
992,Yolane,Marita,Chick,Gemini,Liva,173.38,215.37,Zachary
993,Susan,Codie,Weinreb,Jehu,Smitt,123.26,180.46,Ashely
994,Nelle,Jasmina,Lilybelle,Jacinda,Jobi,469.03,740.74,Laverne
995,Annora,Jemie,Harriman,Pillsbury,Delacourt,289.31,106.47,Thar
996,Charmaine,Kittie,Judye,Casimir,Joni,277.79,617.69,Rheingold
997,Michaelina,Nyssa,Kazimir,Anastatius,Georgy,363.77,789.25,Edmund
998,Clo,Wendi,Regan,Dorine,Pandolfi,268.85,856.94,Manolo
999,Tina,Marita,O'Neill,Faro,Dahlia,39.4,205.4,Kiyoshi
1000,Ernesta,Mildrid,Bendick,Fairweather,Shuler,103.5,188.86,Jobi
1001,Annecorinne,Cacilie,Lacombe,Honoria,Schonfeld,214.45,493.98,Danby
1002,Georgina,Marylou,Clie,Schroth,Peonir,228.54,651.51,Loeb
1003,Cyndie,Deedee,Hieronymus,Ulphia,Brotherson,434.68,653.92,Cadmar
1004,Barbi,Desirae,Brackely,Auberbach,Wenda,160.94,595.51,Brady
1005,Myrtice,Johna,Erich,Ellerey,Kelula,411.2,782.12,Monk
1006,Charissa,Ellette,Maroney,Maiah,Arvo,131.56,108.08,Kalinda
1007,Lila,Pamella,Zetta,Abernon,Thomasina,59.15,630.32,Selway
1008,Alia,Monika,Blisse,Hoenack,Malanie,209.11,838.71,Burch
1009,Antonietta,Corly,Magnolia,Dash,Ciapas,438.19,606.86,Chinua
1010,Tilly,Marguerite,Ogren,Heisel,Campball,78.72,294.58,Gaynor
1011,Siana,Aubrie,Pettiford,Fiester,Euridice,82.14,96.54,Kussell
1012,Alyda,Nonnah,Anastatius,Bettine,Burch,263.64,99.86,Plato
1013,Edith,Maud,Lucienne,Poppy,Craggie,281.38,836.45,Terencio
1014,Marcy,Daune,Waldron,Ivens,Brady,252.09,131.62,Lucienne
1015,Lexine,Consuela,Kenney,Hoban,Hanleigh,267.72,814.45,Kathie
1016,Malina,Atlanta,Annice,Joeann,Milde,210.25,319.58,Madelene
1017,Malina,Winifred,Narton,Fax,Kinnard,99.08,199.85,Shaddock
1018,Dawn,Kary,Baudin,Wesle,Edee,401.71,623.23,Prouty
1019,Merry,Alyda,Brieta,Sundin,Rad,157.85,920.61,Toni
1020,Tamqrah,Isa,Tamar,Rebecka,Denis,67.5,848.47,Kendrick
1021,Dawn,Ileana,Germann,Goode,Koziara,469.18,599.3,Odell
1022,Janenna,Shel,Kelula,Tremayne,Frodi,174.65,276.19,Rustice
1023,Siana,Phedra,Rozanna,Milde,Lubin,157.75,627.89,Florina
1024,Ricky,Ada,Salvidor,Craggie,Dorine,141.72,179.31,Rooney
1025,Fina,Margalo,Fadiman,Darbie,Burnside,223.13,96.46,Havens
1026,Tomasina,Ilse,Milson,Kussell,Shelba,108.8,383.69,Septima
1027,Selma,Harmonia,Dyche,Crudden,Afton,415.6,569.3,Elbertina
1028,Sonni,Gabriellia,Rooney,Hubert,Schlosser,379.46,689.04,Henebry
1029,Shauna,Ricky,Freddi,Yoko,Frendel,16.22,801.81,Pillsbury
1030,Flo,Mathilda,Seumas,Pauly,Vastah,393.62,286.65,Carey
1031,Vita,Jacquetta,Calhoun,Sandye,Darbie,294.91,128.81,Gabrielli
1032,Tonia,Darlleen,Arvo,Duwalt,Ellerey,304.06,283.63,Alejoa
1033,Joelly,Fernande,Donoghue,Moina,Belanger,253.86,404.47,Grayce
1034,Margarette,Gilligan,Rad,Merna,Bandeen,217.36,493.83,Hebner
1035,Mamie,Jerry,Iaverne,Pauly,Munn,403.93,95.07,Giff
1036,Rivalee,Cam,Engdahl,Hubert,Merell,344.09,563.03,Adore
1037,Gabi,Collen,Sparhawk,Daveta,Kermit,21.75,151.02,Rese
1038,Linet,Alyssa,Hashim,Cavan,Aloise,202.26,905.06,Charmine
1039,Carree,Arlena,Alexandr,Nicoline,Camden,109.44,605.55,Pillsbury
1040,Vivia,Brynna,Erich,Dyche,Shirberg,219.43,280.44,Shuler
1041,Bettine,Gianina,Selway,Kaete,Ezar,52.87,301.73,Maisey
1042,Petronia,Fayre,Elisha,Gale,Quent,222.85,330.52,Kermit
1043,Concettina,Valera,Kermit,Cullin,Kannry,148.19,875.43,Newell
1044,Gwenneth,Corry,Dichy,Karylin,Schlosser,132.84,251.47,Quinn
1045,Regina,Sindee,Myrilla,Wiener,Bronk,296.38,425.37,LaRue
1046,Rayna,Gisela,Pozzy,My,Dorine,272.91,655.25,Jess
1047,Wanda,Ira,Jefferey,Toor,Cottle,280.57,491.15,Pond
1048,Lilith,Margette,Llovera,Faria,Naor,25.33,942,Judye
1049,Tilly,Hildegaard,Kimmie,Cassius,Rad,185.02,314.86,Morehouse
1050,Kaja,Elie,Talia,Hebner,Bivins,468.42,596.65,Weide
1051,Rani,Ariela,Warthman,Millda,Seumas,379.63,579.5,Donell
1052,Mureil,Lily,Wallis,Seessel,Ochs,488.58,952.45,Socha
1053,Tybie,Concettina,Lynn,Felizio,Gaynor,85.12,640.79,Albertine
1054,Penelopa,Audrie,Santoro,Federica,Joli,463.94,66.33,Maiah
1055,Pollyanna,Kerrin,Lenny,Center,Emmy,248.62,666.1,Seagraves
1056,Merrie,Kore,Sacken,Grosz,Lipson,205.95,250.26,Marijo
1057,Edyth,Taffy,Reidar,Stover,Maryanne,167.69,299.32,Joachim
1058,Jany,Ayn,Parsaye,Even,Ailyn,307.6,699.01,Koziara
1059,Dede,Lynnea,Saree,Kat,Payson,137.61,856.98,Amasa
1060,Edith,Marika,Blase,Jarib,Corrine,86.28,563.71,Jefferey
1061,Tonia,Yvonne,Juliet,LaRue,Quent,347.98,510.21,Romelda
1062,Lizzie,Ezmeralda,Imelida,Jenness,Leonard,161.92,867.26,Tippets
1063,Cindelyn,Emma,Dudley,Estella,Pauly,96.95,298.75,Fadiman
1064,Melodie,Kalina,Leler,Chabot,Schroth,470.23,155.8,Brenn
1065,Michaelina,Nonnah,Han,Smitt,Weinreb,148.96,499.46,Yoko
1066,Devina,Dagmar,Sheng,Wattenberg,Erlandson,239.09,921.57,Alrich
1067,Lelah,Alisha,Seagraves,Faria,Himelman,240.83,943.19,Saunderson
1068,Almeta,Dede,Obed,Zola,Gower,49.03,903.39,Pacorro
1069,Talya,Grier,Solitta,Carvey,Kare,358.26,984.92,Shaddock
1070,Cristabel,Susan,Randene,Sisile,Hermes,378.4,135.25,Gino
1071,Cristabel,Hettie,Damarra,Lattie,Baptlsta,461.94,985.03,Vharat
1072,Ottilie,Jobi,Silvan,Ferino,Hilbert,493.72,485.74,Vilma
1073,Joceline,Leontine,Tengdin,Garrison,Dichy,246.24,860.17,Hamil
1074,Daphne,Hollie,Judye,Minetta,Bigner,138.34,856.62,Koziara
1075,Ekaterina,Rebeca,Bord,Knowling,Cavan,104.85,934.98,Gusella
1076,Lyssa,Alex,Adlare,Jagir,Camden,182.43,572.91,Dannye
1077,Phylis,Elsie,Sacken,Saunderson,Berard,289.61,621.54,Larochelle
1078,Althea,Jerry,Mozelle,Belanger,Thar,163.63,153.67,Selway
1079,Emma,Olivette,Bouchard,McClimans,Shaver,241.74,275.7,Palocz
1080,Arabel,Mady,Sholley,Hortensia,McNully,412.61,519.47,Telfer
1081,Gerrie,Mahalia,Kare,Gordon,Jary,402.23,590.34,Eldrid
1082,Joy,Miquela,Moina,Dominy,Philoo,210.74,982.73,Firmin
1083,Trudie,Tabbatha,Yorick,Breed,Serilda,432.81,10.47,Greyson
1084,Bee,Emma,Fontana,Claudine,Rudolph,235.97,45.55,Remmer
1085,Daune,Alie,Dulciana,Ranjiv,Vastah,214.15,756.95,Harriman
1086,Elmira,Marnia,Aurelio,Iphlgenia,Regan,44.25,575.99,Deny
1087,Bernardine,Candy,Hathaway,Andrel,Meter,157.6,971.86,Rooney
1088,Leanna,Annice,Byrne,Baudin,Podvin,344.25,533.17,Parette
1089,Teriann,Ileana,Thornburg,Whiffen,Peonir,405.85,228.49,Brittani
1090,Annaliese,Shaylyn,Tayib,Merriott,Gamaliel,266.93,522.92,Calhoun
1091,Inga,Hannis,Cutlerr,Tice,Laverne,424.44,331.63,Estella
1092,Harrietta,Meghann,Carvey,Hollingsworth,Niles,54.58,936.41,Ries
1093,Celene,Quintina,Trace,Hoban,Talia,247.84,34.47,Allys
1094,Edyth,Jere,Niccolo,Montgomery,Madaih,243.27,415.45,Eben
1095,Randa,Gilligan,Lalitta,Rebecka,Amand,419.29,530.94,Tannie
1096,Sonni,Jinny,Levey,Bigner,Mendez,465.65,702.12,Dorothy
1097,Mariann,Jan,Pearse,Jerold,Garbe,54.51,570.47,Latini
1098,Jany,Roz,Fiester,Sprage,Thomasina,370.34,226.74,Longfellow
1099,Luci,Theodora,Rocray,Hieronymus,Plato,278.87,105.79,Bibi
